How to annotate a matrixset
…
#>                   body  brain
#> Mountain beaver   1.35   8.10
#>             ...    ...    ...
#>             Pig 192.00 180.00
#> 
#> matrix_set: log_msr 
#> A 28 × 2 <dbl> matrix
#>                 body brain
#> Mountain beaver 0.30  2.09
#>             ...  ...   ...
#>             Pig 5.26  5.19
#> 
#> 
#> row_info:
#> # A tibble: 28 × 3
#>    .rowname        is_extinct class       
#>    <chr>           <lgl>      <chr>       
#>  1 Mountain beaver FALSE      Rodent      
#>  2 Cow             FALSE      Ruminant    
#>  3 Grey wolf       FALSE      Canine      
#>  4 Goat            FALSE      Ruminant    
#>  5 Guinea pig      FALSE      Rodent      
#>  6 Dipliodocus     TRUE       Dinosaurs   
#>  7 Asian elephant  FALSE      Elephantidae
#>  8 Donkey          FALSE      Equidae     
#>  9 Horse           FALSE      Equidae     
#> 10 Potar monkey    FALSE      Primate     
#> # ℹ 18 more rows
…
Creating new annotations from applying function(s) to an object’s
matrix

Applying functions to a matrixset’s matrices is covered
in the Applying Functions vignette.

The idea here is the same, but with the added benefit that the
function result is stored directly as annotation for the
matrixset object.

ms %>% 
    annotate_row_from_apply(msr, ratio_brain_body = ~ .i[2]/(10*.i[1])) %>% 
    row_info()
#> # A tibble: 28 × 4
#>    .rowname        is_extinct class        ratio_brain_body
#>    <chr>           <lgl>      <chr>                   <dbl>
#>  1 Mountain beaver FALSE      Rodent               0.6     
#>  2 Cow             FALSE      Ruminant             0.0910  
#>  3 Grey wolf       FALSE      Canine               0.329   
#>  4 Goat            FALSE      Ruminant             0.416   
#>  5 Guinea pig      FALSE      Rodent               0.529   
#>  6 Dipliodocus     TRUE       Dinosaurs            0.000427
#>  7 Asian elephant  FALSE      Elephantidae         0.181   
#>  8 Donkey          FALSE      Equidae              0.224   
#>  9 Horse           FALSE      Equidae              0.126   
#> 10 Potar monkey    FALSE      Primate              1.15    
#> # ℹ 18 more rows
…
