Applying Functions
…
#>                   body  brain
#> Mountain beaver   1.35   8.10
#>             ...    ...    ...
#>             Pig 192.00 180.00
#> 
#> matrix_set: log_msr 
#> A 28 × 2 <dbl> matrix
#>                 body brain
#> Mountain beaver 0.30  2.09
#>             ...  ...   ...
#>             Pig 5.26  5.19
#> 
#> 
#> row_info:
#> # A tibble: 28 × 3
#>    .rowname        is_extinct class       
#>    <chr>           <lgl>      <chr>       
#>  1 Mountain beaver FALSE      Rodent      
#>  2 Cow             FALSE      Ruminant    
#>  3 Grey wolf       FALSE      Canine      
#>  4 Goat            FALSE      Ruminant    
#>  5 Guinea pig      FALSE      Rodent      
#>  6 Dipliodocus     TRUE       Dinosaurs   
#>  7 Asian elephant  FALSE      Elephantidae
#>  8 Donkey          FALSE      Equidae     
#>  9 Horse           FALSE      Equidae     
#> 10 Potar monkey    FALSE      Primate     
#> # ℹ 18 more rows
…
If using apply_column_dfw in this context, you wouldn’t
notice a difference in output format.

The difference between the two lies when the vectors are of length
> 1.

animals_ms %>% 
    apply_row_dfl(rg = range(.i),
                  qt = quantile(.i, probs = c(.25, .75)))   
#> $msr
#> # A tibble: 56 × 5
#>    .rowname        rg.name     rg qt.name     qt
#>    <chr>           <chr>    <dbl> <chr>    <dbl>
#>  1 Mountain beaver ..1       1.35 25%       3.04
#>  2 Mountain beaver ..2       8.1  75%       6.41
#>  3 Cow             ..1     423    25%     434.  
#>  4 Cow             ..2     465    75%     454.  
#>  5 Grey wolf       ..1      36.3  25%      57.1 
#>  6 Grey wolf       ..2     120.   75%      98.7 
#>  7 Goat            ..1      27.7  25%      49.5 
#>  8 Goat            ..2     115    75%      93.2 
#>  9 Guinea pig      ..1       1.04 25%       2.16
#> 10 Guinea pig      ..2       5.5  75%       4.38
#> # ℹ 46 more rows
#> 
#> $log_msr
#> # A tibble: 56 × 5
#>    .rowname        rg.name     rg qt.name    qt
#>    <chr>           <chr>    <dbl> <chr>   <dbl>
#>  1 Mountain beaver ..1     0.300  25%     0.748
#>  2 Mountain beaver ..2     2.09   75%     1.64 
#>  3 Cow             ..1     6.05   25%     6.07 
#>  4 Cow             ..2     6.14   75%     6.12 
#>  5 Grey wolf       ..1     3.59   25%     3.89 
#>  6 Grey wolf       ..2     4.78   75%     4.49 
#>  7 Goat            ..1     3.32   25%     3.68 
#>  8 Goat            ..2     4.74   75%     4.39 
#>  9 Guinea pig      ..1     0.0392 25%     0.456
#> 10 Guinea pig      ..2     1.70   75%     1.29 
#> # ℹ 46 more rows

animals_ms %>% 
    apply_row_dfw(rg = range(.i),
                  qt = quantile(.i, probs = c(.25, .75)))   
#> $msr
#> # A tibble: 28 × 5
#>    .rowname        `rg ..1` `rg ..2` `qt 25%` `qt 75%`
#>    <chr>              <dbl>    <dbl>    <dbl>    <dbl>
#>  1 Mountain beaver     1.35      8.1     3.04     6.41
#>  2 Cow               423       465     434.     454.  
#>  3 Grey wolf          36.3     120.     57.1     98.7 
#>  4 Goat               27.7     115      49.5     93.2 
#>  5 Guinea pig          1.04      5.5     2.16     4.38
#>  6 Dipliodocus        50     11700    2962.    8788.  
#>  7 Asian elephant   2547      4603    3061     4089   
#>  8 Donkey            187.      419     245.     361.  
#>  9 Horse             521       655     554.     622.  
#> 10 Potar monkey       10       115      36.2     88.8 
#> # ℹ 18 more rows
#> 
#> $log_msr
#> # A tibble: 28 × 5
#>    .rowname        `rg ..1` `rg ..2` `qt 25%` `qt 75%`
#>    <chr>              <dbl>    <dbl>    <dbl>    <dbl>
#>  1 Mountain beaver   0.300      2.09    0.748     1.64
#>  2 Cow               6.05       6.14    6.07      6.12
#>  3 Grey wolf         3.59       4.78    3.89      4.49
#>  4 Goat              3.32       4.74    3.68      4.39
#>  5 Guinea pig        0.0392     1.70    0.456     1.29
#>  6 Dipliodocus       3.91       9.37    5.28      8.00
#>  7 Asian elephant    7.84       8.43    7.99      8.29
#>  8 Donkey            5.23       6.04    5.43      5.84
#>  9 Horse             6.26       6.48    6.31      6.43
#> 10 Potar monkey      2.30       4.74    2.91      4.13
#> # ℹ 18 more rows
…
