An Example of matrixset in Action
…
#>           AGPNGTLFVADAYK|y10 AGPNGTLFVADAYK|y8 ... LANLTQGEDQYYLR|y8
#> Blank_0_1              59322             86331 ...         142065456
#>       ...                ...               ... ...               ...
#> Blank_3_2              29640             46116 ...         103866312
#> 
#> matrix_set: heavy_area 
#> A 30 × 45 <dbl> matrix
#>           AGPNGTLFVADAYK|y10 AGPNGTLFVADAYK|y8 ... LANLTQGEDQYYLR|y8
#> Blank_0_1                  0                 0 ...                 0
#>       ...                ...               ... ...               ...
#> Blank_3_2                  0                 0 ...             43674
#> And 2 other matrices named "light_rt" and "heavy_rt"
#> 
#> row_info:
#> # A tibble: 30 × 5
#>    RunOrder .rowname  SampleType     Replicate   CalibrationPoint
#>       <int> <chr>     <chr>          <chr>       <chr>           
#>  1        1 Blank_0_1 Blank          <NA>        <NA>            
#>  2        2 Blank_0_2 Blank          <NA>        <NA>            
#>  3        3 Blank_0_3 Blank          <NA>        <NA>            
#>  4        4 A_1       SerialDilution Replicate_1 Point_1         
#>  5        5 B_1       SerialDilution Replicate_1 Point_2         
#>  6        6 C_1       SerialDilution Replicate_1 Point_3         
#>  7        7 D_1       SerialDilution Replicate_1 Point_4         
#>  8        8 E_1       SerialDilution Replicate_1 Point_5         
#>  9        9 F_1       SerialDilution Replicate_1 Point_6         
#> 10       10 G_1       SerialDilution Replicate_1 Point_7         
#> # ℹ 20 more rows
#> 
#> 
#> column_info:
#> # A tibble: 45 × 9
#>    PeptideSequence PrecursorCharge ProductCharge FragmentIon `light PrecursorMz`
#>    <chr>                     <dbl>         <dbl> <chr>       <chr>              
#>  1 AGPNGTLFVADAYK                2             1 y10         712.856449         
#>  2 AGPNGTLFVADAYK                2             1 y8          712.856449         
#>  3 AGPNGTLFVADAYK                2             1 y7          712.856449         
#>  4 DIENFNSTQK                    2             1 y8          598.775125         
#>  5 DIENFNSTQK                    2             1 y7          598.775125         
#>  6 DIENFNSTQK                    2             1 y6          598.775125         
#>  7 FNETTEK                       2             1 y6          435.19799          
#>  8 FNETTEK                       2             1 y5          435.19799          
#>  9 FNETTEK                       2             1 y4          435.19799          
#> 10 YLGNATAIFFLPDE…               2             1 y8          878.943253         
#> # ℹ 35 more rows
#> # ℹ 4 more variables: `light ProductMz` <chr>, `heavy PrecursorMz` <chr>,
#> #   `heavy ProductMz` <chr>, .colname <chr>
…
